[
  {
    "type": "get",
    "url": "/user/:id",
    "title": "Request User information",
    "name": "GetUser",
    "group": "User",
    "parameter": {
      "fields": {
        "Parameter": [
          {
            "group": "Parameter",
            "type": "Number",
            "optional": false,
            "field": "id",
            "description": "<p>Users unique ID.</p>"
          }
        ]
      }
    },
    "success": {
      "fields": {
        "Success 200": [
          {
            "group": "Success 200",
            "type": "String",
            "optional": false,
            "field": "firstname",
            "description": "<p>Firstname of the User.</p>"
          },
          {
            "group": "Success 200",
            "type": "String",
            "optional": false,
            "field": "lastname",
            "description": "<p>Lastname of the User.</p>"
          }
        ]
      }
    },
    "version": "0.0.0",
    "filename": "myapp/_apidoc.js",
    "groupTitle": "User"
  }
]
