{
  "name": "example",
  "version": "0.1.0",
  "description": "apiDoc basic example",
  "title": "Custom apiDoc browser title",
  "url": "https://api.github.com/v1",
  "sampleUrl": false,
  "defaultVersion": "0.0.0",
  "apidoc": "0.3.0",
  "generator": {
    "name": "apidoc",
    "time": "2021-08-31T14:05:02.255Z",
    "url": "https://apidocjs.com",
    "version": "0.29.0"
  }
}
